







cat2 
cat1 cat2 
basis1 cat1 cat2 
cat2 source2 
ad3 cat2 source2 
basis1 
ad2 ad3 basis1 basis2 
ad2 basis2 



basis1 
basis1 
basis1 
basis1 


tu3 


tpr1 

basis1 ta1 tc3 
basis1 tc2 













ad2 














ad3 cat2 source2 


basis1 tc2 




