



basis2 












cat2 
basis2 



basis2 
basis2 
cat2 
basis2 

























cat2 source2 




tu1 
tu1 


tu1 




tu1 




cat2 
ad2 












cat2 




ad3 basis1 


cat1 

basis2 

basis1 

cat2 


cat1 




cat2 

cat2 











cat2 source1 
cat2 source1 
basis2 

















ad2 

ad2 


cat2 source1 


basis2 

tpr2 


tu1 

tu1 


cat2 
tu1 




cat2 source2 





cat2 


basis1 
basis2 








cat2 source2 










basis2 

basis2 tc3 
basis1 tc3 
basis2 
basis1 tc3 








tu1 














tu1 





























