





ch2 ch2 use2 cr3 




















cr2 ter2 ltd2 cr3 ltd2 ter3 cr3 ltd2 ltd2 cr3 ltd2 ter3 cr2 ter2 cr3 ter3 
















































































































































































































































































pinc2 ch2 ch2 cr2 ter3 ter2 























ch2 

























































ch2 ltd2 ltd2 ltd2 ltd3 ltd2 ltd2 








ltd2 cr3 ter2 













ch2 ch2 use2 





















j3 law2 j3 

