








ter3 





ter3 





use2 

ter3 




















j3 
































ter3 





ch2 




























ter3 









ch2 










j3 


ch2 
ch2 






































use2 




























j3 















ch2 



law2 





ch2 



