
basis1 cat1 cat2 
basis1 
basis1 
basis1 cat1 cat2 


basis1 
cat2 


cat2 source2 


ad2 basis2 
ad2 basis2 

basis1 

basis1 
basis1 

basis1 


ad2 ad3 basis1 basis2 


ad2 ad3 basis1 basis2 

ad2 ad3 basis1 basis2 
basis1 tc2 

basis1 cat1 cat2 


ad2 basis2 
basis1 

ad2 ad3 basis1 basis2 

basis1 cat1 cat2 

basis1 cat1 cat2 

ad2 basis2 




basis1 cat1 cat2 




ad2 basis2 

ad2 ad3 basis1 basis2 


ad2 ad3 basis1 basis2 



ad2 ad3 basis1 basis2 

basis1 tc2 

