
cat2 source2 


tc2 

ad3 
cat2 
basis1 cat1 


cat2 

ad3 



ad3 
cat2 source2 







cat2 source2 

tc2 
cat2 source2 
tc2 


cat2 source1 




basis1 cat1 

ad3 



tc2 

source1 
ad3 

basis1 cat1 

cat2 source2 







cat2 source2 
basis2 
basis1 cat1 


cat2 source2 




cat2 source2 


basis1 ta1 
ad3 
tc2 





cat2 source2 

basis2 

cat2 source2 

ad3 

basis2 

ad3 

basis1 ta1 

basis1 ta1 
tc2 

tc2 

cat2 
tpr1 
cat2 source2 
tc2 


ad1 
tc2 
cat2 source2 



ad3 



cat2 source2 


tc2 


cat2 source2 
tc2 

tc2 
basis1 ta1 




tc3 

ad3 
cat2 source2 
tc2 
tc2 


basis2 
cat2 source2 



basis1 

cat2 source2 
cat2 
ad3 




tpr1 
tpr1 



cat2 source2 


ad3 


basis2 

tc2 









tc2 


ad3 
cat2 source1 

