





cat1 




cat2 
cat2 
cat2 
cat2 source1 
cat2 
cat2 
cat2 


cat2 
cat2 
cat2 
cat2 

cat2 










ad2 
ad2 

basis1 
basis1 
basis1 


basis2 
basis2 
basis1 




tpr1 
tpr1 
tpr1 

tc2 
tc2 


cat2 tu1 tu1 







source1 tc1 
cat1 source1 tc1 
























































tc3 











