use2 ch2 use2 ltd2 ltd2 














































































ch2 ter2 ch2 ltd2 ltd2 ter2 law2 j3 j3 
j3 law2 
j3 law2 
j3 law2 
j3 law2 
j3 law2 
j3 law2 
j3 law2 
j3 law2 
j3 law2 
j3 law2 
j3 law2 
j3 law2 
j3 law2 
j3 law2 
j3 law2 
j3 law2 
j3 law2 
j3 law2 
j3 law2 
j3 law2 
j3 law2 
j3 law2 
