
















cat2 
basis2 
cat2 

basis2 
basis2 
basis2 
basis1 
basis2 
basis1 
cat1 




tu1 
tu1 
tu1 
tu1 















cat2 source2 


cat2 source1 



tu1 
tu1 
tu1 
tu1 
tu1 
tu1 
tu1 
tu1 



tu1 
cat2 
ad3 





cat2 
cat2 

cat1 

tpr1 
basis1 cat1 source1 
cat2 



cat1 
ad3 basis1 

cat2 
cat1 

cat1 
cat1 
cat1 

cat2 


cat1 
basis1 



cat2 

cat2 











cat2 source1 
cat2 source1 
cat2 source1 

basis1 cat2 



cat2 

ad2 
ad2 



ad2 

ad2 


ad2 



tc1 


cat2 source1 tpr2 
tpr2 

tpr2 
tu3 

tu1 

tu1 
cat2 







tpr2 
tpr2 
tpr2 
tpr2 


tc3 
tc3 

tc3 
basis2 


tc3 


basis2 ta1 tc3 



tc1 









basis2 
basis2 tc3 
basis2 tc3 
basis1 tc3 
basis2 
basis1 tc3 





















































