





cat1 




cat2 
cat2 
cat2 
cat2 source1 
cat2 
cat2 

source1 tc1 



cat2 
cat2 













ad2 



cat2 




basis1 






tpr1 

tc2 
cat2 source1 
tc2 




cat2 

cat2 
cat2 

source1 tc1 

tc3 


cat2 








ad2 








cat2 






cat2 tu1 






ad2 











cat2 


basis2 





tc3 











