F1-macro	0.78
F1-micro	0.82
F1-weighted	0.82
Precision	0.90
Recall	0.76
              precision    recall  f1-score   support

          a1       0.00      0.00      0.00         1
          a2       1.00      0.67      0.80         6
          a3       1.00      0.67      0.80         3
         ad1       1.00      0.67      0.80         3
         ad2       1.00      0.75      0.86        12
         ad3       0.93      0.87      0.90        15
      basis1       1.00      0.85      0.92        33
      basis2       1.00      0.82      0.90        22
        cat1       0.97      0.74      0.84        38
        cat2       0.91      0.80      0.85        89
         ch2       0.84      0.84      0.84        37
         cr2       1.00      0.57      0.73         7
         cr3       0.93      0.81      0.87        16
          j1       1.00      0.67      0.80         3
          j3       0.69      0.75      0.72        12
        law1       1.00      1.00      1.00         4
        law2       0.73      0.73      0.73        11
        ltd1       0.50      1.00      0.67         1
        ltd2       0.92      0.63      0.75        38
        ltd3       1.00      0.33      0.50         3
       pinc2       0.33      0.50      0.40         2
     source1       0.94      0.73      0.82        22
     source2       0.88      0.93      0.90        15
         ta1       1.00      0.67      0.80         6
         ta3       1.00      1.00      1.00         1
         tc1       0.86      0.75      0.80         8
         tc2       0.94      0.68      0.79        22
         tc3       0.79      0.75      0.77        20
        ter2       0.86      0.80      0.83        15
        ter3       0.86      0.71      0.77        17
        tpr1       1.00      0.78      0.88         9
        tpr2       0.86      0.50      0.63        12
         tu1       1.00      0.76      0.86        21
         tu3       1.00      1.00      1.00         3
        use2       0.73      0.62      0.67        13

   micro avg       0.90      0.76      0.82       540
   macro avg       0.87      0.72      0.78       540
weighted avg       0.91      0.76      0.82       540
 samples avg       0.14      0.14      0.14       540

