F1-macro	0.71
F1-micro	0.80
F1-weighted	0.80
Precision	0.85
Recall	0.76
              precision    recall  f1-score   support

          a1       0.00      0.00      0.00         1
          a2       1.00      0.67      0.80         6
          a3       1.00      0.67      0.80         3
         ch2       0.91      0.86      0.89        37
         cr2       1.00      0.57      0.73         7
         cr3       0.93      0.81      0.87        16
          j1       1.00      0.67      0.80         3
          j3       0.69      0.92      0.79        12
        law1       1.00      1.00      1.00         4
        law2       0.82      0.82      0.82        11
        ltd1       0.50      1.00      0.67         1
        ltd2       0.93      0.66      0.77        38
        ltd3       1.00      0.33      0.50         3
       pinc2       0.20      0.50      0.29         2
        ter2       0.75      0.80      0.77        15
        ter3       0.93      0.76      0.84        17
        use2       0.75      0.69      0.72        13

   micro avg       0.85      0.76      0.80       189
   macro avg       0.79      0.69      0.71       189
weighted avg       0.87      0.76      0.80       189
 samples avg       0.09      0.09      0.09       189

