F1-macro	0.70
F1-micro	0.77
F1-weighted	0.77
Precision	0.84
Recall	0.72
              precision    recall  f1-score   support

          a1       0.00      0.00      0.00         1
          a2       1.00      0.67      0.80         6
          a3       1.00      0.67      0.80         3
         ch2       0.84      0.84      0.84        37
         cr2       1.00      0.57      0.73         7
         cr3       0.93      0.81      0.87        16
          j1       1.00      0.67      0.80         3
          j3       0.69      0.75      0.72        12
        law1       1.00      1.00      1.00         4
        law2       0.73      0.73      0.73        11
        ltd1       0.50      1.00      0.67         1
        ltd2       0.92      0.63      0.75        38
        ltd3       1.00      0.33      0.50         3
       pinc2       0.33      0.50      0.40         2
        ter2       0.86      0.80      0.83        15
        ter3       0.86      0.71      0.77        17
        use2       0.73      0.62      0.67        13

   micro avg       0.84      0.72      0.77       189
   macro avg       0.79      0.66      0.70       189
weighted avg       0.85      0.72      0.77       189
 samples avg       0.08      0.08      0.08       189

