





a2 





use2 

use2 






















law2 






















ltd2 
ltd2 
cr3 
cr3 



use2 pinc2 

ch2 ter3 ch2 








ch2 
cr3 ter3 

ter2 



























































ltd2 








ter2 
ter3 
ter3 


ter3 
ter2 
cr3 
ter2 














cr3 


















ltd2 


ltd2 











ch2 












ch2 
ch2 
ltd2 






















law2 


law1 



















ltd2 
ltd2 
ltd2 














law2 

a3 


a3 









a2 
a2 










j3 
a2 













ter2 




















ltd1 
ltd1 













































j1 






















j1 

j3 

law1 


ch2 





law1 


ch2 





law1 









ch2 



ter2 










































































