





use2 
use2 

















ch2 
ch2 
ch2 


use2 







































cr3 





















cr2 
ch2 ter3 

ch2 ter3 
cr3 

cr3 






ltd2 
ltd2 









ch2 
ch2 
























ter3 
ter2 







j3 law2 
law2 
j3 
law2 
j3 






























