



cat2 





cat2 


cat2 


cat1 



cat2 

cat2 
cat2 
cat2 
cat2 
cat1 
cat2 
cat2 
cat1 

cat1 
cat1 

cat2 source2 
cat2 source2 
cat2 source2 
cat2 
cat2 

cat2 


cat1 
cat2 
cat2 




cat2 source1 
cat1 source1 
cat2 source2 
tc3 
source2 








ad3 
ad3 
ad3 














ad3 



tpr2 
basis1 
basis1 



ad3 
































tc2 
tc2 








tc2 



tc3 

tc1 
tc1 

tc3 






tc2 

tc2 


tc1 

tpr1 

tc2 




ta3 




tc2 
cat1 source1 























ta1 
ta1 

basis1 tc3 
basis1 tc3 

cat2 source2 

tc3 tpr2 tu3 














