




















use2 




ter3 
ch2 

ch2 ter3 








ch2 ter3 
ch2 ter3 





ch2 


ch2 ter3 









ch2 ter3 




use2 








ch2 




ter3 





ch2 
ch2 ter3 


use2 












ter3 






ltd2 





law2 

j3 

law2 

j3 














ter2 

ch2 
ch2 

ch2 

ter3 




ter2 



ch2 ter3 






ch2 





ter2 





j3 





ch2 ter3 

ch2 ter3 









ter2 


















ch2 





law2 










ch2 ter3 

ch2 









