ter2 













use2 























ltd2 

law1 




ltd2 




















ltd2 


ch2 

















cr3 



















ch2 
a3 








law1 






ch2 



ter2 





law2 



ter3 












ter3 





ter2 












a3 


cr3 



ltd2 

















ltd2 




ltd2 


law1 
















ch2 
ch2 





ch2 















use2 

law2 


use2 




a2 



ter2 




ltd2 
a3 
use2 pinc2 




use2 















use2 

a3 


a3 










a2 










j3 


ter2 


a3 







ltd1 
ch2 















law1 





ter2 








ter3 







ch2 

law1 

































a2 




use2 







ter2 
ch2 

j1 
use2 
j3 






cr3 








cr3 




cr3 



law1 










use2 











j1 




ter2 







a2 

a2 




use2 

ch2 










a2 


use2 

use2 










a2 











