









ch2 
ch2 use2 


cr3 









cr3 

ltd2 




















cr2 
ch2 











ch2 



cr3 ltd2 ter3 
cr3 ltd2 

use2 





ch2 use2 

















j3 law2 




j3 law2 


use2 



pinc2 



cr2 ter2 




















ch2 











use2 














ch2 
















cr2 ter2 
























use2 

























ch2 



ch2 








j3 




































cr2 




ter3 


ter2 




































ch2 
























ch2 
ltd2 
ltd2 
ltd2 
ltd3 


ltd2 
ltd2 








ltd2 


ltd2 
















ch2 


ch2 


use2 


ter3 


















j3 




j3 law2 
j3 














