











ter3 




use2 

law2 





ter3 
j3 






use2 





ter2 


ltd2 



cr3 
use2 






j3 law2 



ch2 







ch2 






cr2 

ltd2 



cr3 






j3 





cr2 






ltd2 



cr3 

ltd2 
use2 





use2 




ch2 



use2 
cr2 









j3 
ltd2 






ter2 

ter3 
ter2 


cr3 
j3 




law2 








ter3 


ch2 

ter3 


















j3 
