tc3 



cat2 




basis1 


tc3 tpr2 tu3 
cat2 


cat2 

cat2 

cat2 
cat2 

cat2 

cat2 source2 
tpr2 


cat1 
cat2 source2 

cat1 


ta3 


cat2 






cat2 
tc1 
tpr2 


cat2 source1 
cat1 




cat2 

basis1 tc3 
tc1 
tc1 
tc3 




cat2 

cat1 











ad3 




basis1 











source2 

cat1 




cat1 






cat2 



ad3 



tpr2 
cat2 



tc2 

cat2 


cat2 



cat1 






tpr2 

cat2 


cat2 

cat2 

tc2 

tc2 




cat2 

cat1 
cat1 
cat2 


tc1 

cat2 


ta1 
ad3 
cat1 












cat2 

cat1 


cat2 




cat1 
ta1 

cat1 source1 

cat1 
ta1 

tc3 tpr2 tu3 

cat2 
cat2 
ad3 

cat2 



cat2 




