


















law2 





ch2 




use2 

use2 





















ter3 















cr3 











j3 









cr2 
ch2 

ch2 ter3 




















ch2 
ch2 
ch2 


















j3 law2 













law2 



j3 law2 






























