





cat1 



cat2 
cat2 
cat2 
cat2 

cat2 
cat2 
cat2 




cat2 





basis2 

cat2 





cat2 
ad2 






basis2 

basis1 





cat2 
tpr1 

tc2 



cat1 


cat2 source1 












tu1 


tu1 


ad2 


cat2 



cat2 
cat2 
cat2 
cat2 























cat2 









tc3 
cat2 










