















ch2 
ch2 
ch2 
ch2 



use2 


















































ch2 


ter3 





ch2 
ch2 ter3 






















ltd2 





law2 

j3 

law2 

j3 
















ch2 
ch2 












ter2 










































































ch2 









